<svg xmlns="http://www.w3.org/2000/svg" width="16.031" height="9.969" viewBox="0 0 16.031 9.969">
  <metadata><?xpacket begin="﻿" id="W5M0MpCehiHzreSzNTczkc9d"?>
<x:xmpmeta xmlns:x="adobe:ns:meta/" x:xmptk="Adobe XMP Core 5.6-c138 79.159824, 2016/09/14-01:09:01        ">
   <rdf:RDF xmlns:rdf="http://www.w3.org/1999/02/22-rdf-syntax-ns#">
      <rdf:Description rdf:about=""/>
   </rdf:RDF>
</x:xmpmeta>
                                                                                                    
                                                                                                    
                                                                                                    
                                                                                                    
                                                                                                    
                                                                                                    
                                                                                                    
                                                                                                    
                                                                                                    
                                                                                                    
                                                                                                    
                                                                                                    
                                                                                                    
                                                                                                    
                                                                                                    
                                                                                                    
                                                                                                    
                                                                                                    
                                                                                                    
                                                                                                    
                           
<?xpacket end="w"?></metadata>
<defs>
    <style>
      .cls-1 {
        fill: #2065a0;
        fill-rule: evenodd;
      }
    </style>
  </defs>
  <path id="Forma_1_копия" data-name="Forma 1 копия" class="cls-1" d="M107.863,501.587c-0.141-.186-3.523-4.57-7.864-4.57s-7.722,4.384-7.864,4.57a0.686,0.686,0,0,0,0,.837c0.142,0.187,3.524,4.57,7.864,4.57s7.722-4.384,7.864-4.57A0.686,0.686,0,0,0,107.863,501.587Zm-9.111-.512a1.608,1.608,0,0,0-.187,1.409,0.709,0.709,0,0,1-.548.859,0.766,0.766,0,0,1-.177.019,0.741,0.741,0,0,1-.724-0.543,2.865,2.865,0,0,1,.508-2.667,2.9,2.9,0,0,1,1.992-1.044h0a0.718,0.718,0,0,1,.745.7,0.726,0.726,0,0,1-.735.7A1.516,1.516,0,0,0,98.752,501.075Zm2.8,3.362a0.894,0.894,0,1,1,.936-0.893A0.915,0.915,0,0,1,101.551,504.437Zm-7.857-2.432a12.034,12.034,0,0,1,4.142-3.114,3.717,3.717,0,0,0-1.852,3.186,3.669,3.669,0,0,0,1.318,2.8A12.593,12.593,0,0,1,93.694,502.005Zm8.606,3.059a3.692,3.692,0,0,0,1.555-2.987,3.744,3.744,0,0,0-2.19-3.366,11.486,11.486,0,0,1,4.642,3.295A12.115,12.115,0,0,1,102.3,505.064Z" transform="translate(-92 -497.031)"/>
</svg>
